%YAML 1.1
%TAG !u! tag:unity3d.com,2011:
--- !u!1045 &1
EditorBuildSettings:
  m_ObjectHideFlags: 0
  serializedVersion: 2
  m_Scenes:
  - enabled: 1
    path: Assets/CoinRoyale/Scenes/LobbyScene.unity
    guid: 1b207881e2023634ebe1f7bd41623ef8
  - enabled: 1
    path: Assets/CoinRoyale/Scenes/GameScene.unity
    guid: 34cf938f95b7a1748aed54409e0986c5
  - enabled: 1
    path: Assets/CoinRoyale/Scenes/LauncherScene.unity
    guid: aac2eeabf0c8dfe41bc33f23c4ecb895
  m_configObjects: {}
